#
# Account number definitions for Discover Card
# $Id: discovercard.txt 56177 2011-06-29 13:13:38Z dtvdomain\jweiss $
#
## 6011 XXXX XXXX XXXX
166011

## 65XX XXXX XXXX XXXX
1665

## CHINA UNION PAY
## 62212600 62292599
16622126
16622127
16622128
16622129
1662213
1662214
1662215
1662216
1662217
1662218
1662219
166222
166223
166224
166225
166226
166227
166228
1662290
1662291
16622920
16622921
16622922
16622923
16622924
16622925

#62451800XXXXXXXX - 62451899XXXXXXXX
16624518

#63888800XXXXXXXX - 63888899XXXXXXXX
16638888

#64400000 - 65999999
16644
16645
16646
16647
16648
16649
1665

#68580000XXXXXXXX - 68580099XXXXXXXX
16685800

#94007800XXXXXXXX - 94007899XXXXXXXX
16940078

#95555400XXXXXXXX - 95555999XXXXXXXX
16955554
16955555
16955556
16955557
16955558
16955559

#95559000XXXXXXXX - 95559399XXXXXXXX
16955590
16955591
16955592
16955593

#95599800XXXXXXXX - 95599899XXXXXXXX
16955998

#96880000XXXXXXXX - 96880599XXXXXXXX
16968800
16968801
16968802
16968803
16968804
16968805

#98430200XXXXXXXX - 98430399XXXXXXXX
16984302 
16984303

#99880100XXXXXXXX - 99880299XXXXXXXX
16998801
16998802

# Requested by CRI email dt. 9-19-12
#6282XXXXXXXXXXXX
166282

#6250XXXXXXXXXXXX
166250