<?xml version="1.0" encoding="UTF-8"?>
<!-- $Id$ -->
<LogDefinitions xmlns:xsi="http://www.w3.org/2001/XMLSchema-instance"
                xsi:noNamespaceSchemaLocation="LogConfig.xsd">

</LogDefinitions>
