0 22 * * 6 dtv.pos.payroll.AutoPostPayroll#run
0 23 * * * dtv.pos.register.layaway.common.UpdateLayawayAccountStatus
0 0 * * * dtv.pos.timeclock.AutoClockOutTask#reclockFromMidnight
*/5 * * * * cri.ajb.fipay.TokenUpdateTask#run