<?xml version="1.0" encoding="UTF-8"?>
<!-- $Id$ -->
<LogDefinitions xmlns:xsi="http://www.w3.org/2001/XMLSchema-instance" xsi:noNamespaceSchemaLocation="LogConfig.xsd">
  <!-- ***************************************************** -->
  <!-- ** ROUTING RULES -->
  <!-- ***************************************************** -->
  <RoutingRules>
    <RoutingRule name="CRI.DEPOSIT_BAG" document="CRI.DEPOSIT_BAG" file="BAGS">
      <condition class="dtv.pos.docbuilding.conditions.InstanceOfCondition" value="cri.xst.dao.tsn.ICriDepositBag" />
    </RoutingRule>
    <!-- /344027: Inventory Replenishment -->
  </RoutingRules>

  <!-- ***************************************************** -->
  <!-- ** LOG DOCUMENT TYPES -->
  <!-- ***************************************************** -->
  <LogTypes>
    <LogType document="CRI.DEPOSIT_BAG" sectionref="CRI.DEPOSIT_BAG" />
  </LogTypes>

  <!-- ***************************************************** -->
  <!-- ** SECTIONS -->
  <!-- ***************************************************** -->
  <sections>
    <section name="CRI.DEPOSIT_BAG">
      <xml><![CDATA[
        <DepositBag xmlns:dtv="http://www.datavantagecorp.com/xstore/"
             TrainingModeFlag="#{getOrganizationId}[trainingMode]"
             OfflineFlag="#{getKeyedOffline}[boolean]"
             dtv:AppVersion="#{dtv.pos.Version.getReleaseVersion}">

          <BagNumber>#{getNumber}</BagNumber>
          <BagType>#{getType}</BagType>
          <Amount>#{getAmount}[money]</Amount>
          <Status>#{getStatus}</Status>
          <BusinessDayDate>#{getBusinessDate}[date]</BusinessDayDate>
          <CreateEmployeeId>#{getEmployeeId}</CreateEmployeeId>
          <CreateDate>#{getCreateDateTime}[datetime]</CreateDate>
          <LastUpdateEmployeeId>#{getLastChangeEmployeeId}</LastUpdateEmployeeId>
          <ConveyedDate>#{getConveyanceDateTime}[datetime]</ConveyedDate>
          <LostReasonCode>#{getLostReasonCode}</LostReasonCode>
        </DepositBag>
      ]]></xml>
    </section>
    <section name="tran_header_detail">
      <!-- CRI: Add geocode -->
	  <xml><![CDATA[
        <RetailStoreID>#{getRetailLocationId}</RetailStoreID>
        <?call method="getRetailLocationIdObject{REGISTER_CORE}"?>
          <dtv:geo_code>#{getGeoCode}</dtv:geo_code>
        <?_call?>
        <WorkstationID>#{getWorkstationId}</WorkstationID>
        <TillID>#{getSessionId}</TillID>
        <SequenceNumber>#{getTransactionSequence}</SequenceNumber>
        <BusinessDayDate>#{getBusinessDate}[date]</BusinessDayDate>
        <BeginDateTime>#{getBeginDatetimestamp}[datetime]</BeginDateTime>
        <EndDateTime>#{getEndDatetimestamp}[datetime]</EndDateTime>
        <OperatorID>#{getOperatorParty.getEmployeeId}</OperatorID>
        <CurrencyCode>#{dtv.pos.common.ConfigurationMgr.getLocalCurrencyId}</CurrencyCode>
        
        <?iterator method="getProperties"?>
        <dtv:PosTransactionProperties>
          <dtv:PosTransactionPropertyCode>#{getPropertyCode}</dtv:PosTransactionPropertyCode>
          <dtv:PosTransactionPropertyValue>#{getPropertyValue}</dtv:PosTransactionPropertyValue>
        </dtv:PosTransactionProperties>
        <?_iterator?>
      ]]></xml>
    </section>

    <section name="credit_debit_tender">
      <condition class="dtv.pos.docbuilding.conditions.InstanceOfCondition" value="dtv.xst.dao.ttr.ICreditDebitTenderLineItem" />
      <xml><![CDATA[
        <CreditDebit>
          <IssuerIdentificationNumber>#{getMediaIssuerId}</IssuerIdentificationNumber>
          <PrimaryAccountNumber>#{getAccountNumberEncrypted}</PrimaryAccountNumber>
          <ReconciliationCode>#{getAuthorizationCode}</ReconciliationCode>
          <dtv:ExpirationDateEncrypted>#{getExpirationDateStringEncrypted}</dtv:ExpirationDateEncrypted>
          <dtv:MaskedCardNumber>#{getMaskAccountNumberDao}</dtv:MaskedCardNumber>
          <dtv:AuthorizationToken>#{getAuthorizationToken}</dtv:AuthorizationToken>
          <dtv:HashedCardNumber>#{getAccountNumberHash}</dtv:HashedCardNumber>
          <?sectionref name="CRI_ISD_Encrypted_Text"?>
        </CreditDebit>
      ]]></xml>
    </section>

    <section name="CRI_ISD_Encrypted_Text">
      <xml><![CDATA[
        <?iterator method="getProperties"?>
             <?condition method="getPropertyCode" comparison="EQUAL" value="CRI_ISD_Encrypted_Text"?>
                     <dtv:ISDEncryptedData>#{getPropertyValue}</dtv:ISDEncryptedData>
               <?_condition?>
        <?_iterator?>
      ]]></xml>
    </section>

    <section name="till_count">
      <condition class="dtv.pos.docbuilding.conditions.TenderControlTransTypeCondition" value="PAID_IN" inverted="true" />
      <condition class="dtv.pos.docbuilding.conditions.TenderControlTransTypeCondition" value="PAID_OUT" inverted="true" />
      <xml><![CDATA[
        <?element name="#{getTypeCode}[tillCountType]"?>
          <dtv:InboundTillID>#{getInboundTenderRepository.getTenderRepositoryId}</dtv:InboundTillID>
          <dtv:OutboundTillID>#{getOutboundTenderRepository.getTenderRepositoryId}</dtv:OutboundTillID>
          <?condition method="getOutboundTenderRepository.getTenderRepositoryId" comparison="EQUAL" value="STOREBANK"?>
            <?literal value="!{cri.pos.till.CriStoreSafeFloatAmountDocBuilderField}"?>
          <?_condition?>
          <?condition method="getOutboundTenderRepository.getTenderRepositoryId" comparison="NOT_EQUAL" value="STOREBANK"?>
            <dtv:CashRemainedInTill>#{getOutboundTenderRepository.getLastClosingCashAmt}</dtv:CashRemainedInTill>
          <?_condition?>

          <?iterator method="getTenderTypeCounts"?>
          <dtv:TenderTypeCount TenderType="#{getTenderTypeCode}">
            <dtv:TenderTypeTotal>
              <Amount>#{getAmount}[money]</Amount>
              <DifferenceAmount>#{getDifferenceAmount}[money]</DifferenceAmount>
            </dtv:TenderTypeTotal>

            <?iterator method="getTenderCounts"?>
            <dtv:TenderCount TenderId="#{getTenderId}">
              <TenderTotal>
                <Amount>#{getAmount}[money]</Amount>
                <DifferenceAmount>#{getDifferenceAmount}[money]</DifferenceAmount>
              </TenderTotal>

              <?iterator method="getTenderDenominationCounts"?>
              <dtv:TenderDenominationCount TenderDenominationId="#{getDenominationId}">
                <dtv:TenderDenominationTotal>
                  <Amount>#{getAmount}[money]</Amount>
                  <DifferenceAmount>#{getDifferenceAmount}[money]</DifferenceAmount>
                </dtv:TenderDenominationTotal>
              </dtv:TenderDenominationCount>
              <?_iterator?>
            </dtv:TenderCount>
            <?_iterator?>

            <?iterator method="getTenderSerializedCounts"?>
            <dtv:TenderTypeSerializedCount TenderType="#{getTenderTypeCode}">
              <dtv:TenderCount TenderId="#{getTender.getTenderId}">
                <dtv:TenderTypeSerializedTotal>
                  <Amount>#{getAmount}[money]</Amount>
                </dtv:TenderTypeSerializedTotal>
              </dtv:TenderCount>
            </dtv:TenderTypeSerializedCount>
            <?_iterator?>
          </dtv:TenderTypeCount>
          <?_iterator?>
        <?_element?>
      ]]></xml>
    </section>

    <section name="item_price_modifiers">
      <xml><![CDATA[
        <?iterator method="getRetailPriceModifiers"?>
        <RetailPriceModifier MethodCode="#{getRetailPriceModifierReasonCode}[priceModifierMethodCode]" VoidFlag="#{getVoid}[boolean]">
          <SequenceNumber>#{getRetailPriceModifierSequenceNbr}</SequenceNumber>
          
          <?condition method="getRetailPriceModifierReasonCode" comparison="EQUAL" value="PRICE_OVERRIDE"?>
          <Amount Action="Replace">#{getPriceChangeAmount}[money]</Amount>
          <?_condition?>
          <?condition method="getRetailPriceModifierReasonCode" comparison="EQUAL" value="PROMPT_PRICE_CHANGE"?>
          <Amount Action="Replace">#{getPriceChangeAmount}[money]</Amount>
          <?_condition?>
          <?condition method="getRetailPriceModifierReasonCode" comparison="EQUAL" value="BASE_PRICE_RULE"?>
          <Amount Action="dtv:BasePrice">#{getAmount}[money]</Amount>
          <?_condition?>

          <?condition method="getRetailPriceModifierReasonCode" comparison="NOT_EQUAL" value="PRICE_OVERRIDE"?>
          <?condition method="getRetailPriceModifierReasonCode" comparison="NOT_EQUAL" value="PROMPT_PRICE_CHANGE"?>
          <?condition method="getRetailPriceModifierReasonCode" comparison="NOT_EQUAL" value="BASE_PRICE_RULE"?>
          <Amount Action="Subtract">#{getExtendedAmount}[money]</Amount>
          <?_condition?>
          <?_condition?>
          <?_condition?>

          <?condition method="getDiscount" comparison="NOT_NULL"?>
          <PromotionID>#{getDiscount.getDiscountCode}</PromotionID>
          <?_condition?>
          <?condition method="getDiscount" comparison="IS_NULL"?>
          <PromotionID>#{getPromotionId}</PromotionID>
          <?_condition?>
          <?condition method="getRetailPriceModifierReasonCode" comparison="EQUAL" value="DEAL"?>
          <PromotionID>#{getDealId}</PromotionID>
          <?_condition?>
          
          <?condition method="getRetailPriceModifierReasonCode" comparison="EQUAL" value="PRICE_OVERRIDE"?>
          <PreviousPrice>#{getPreviousPrice}[money]</PreviousPrice>
          <NewPrice>#{getPriceChangeAmount}[money]</NewPrice>
          <ReasonCode>#{getPriceChangeReasonCode}</ReasonCode>
          <?_condition?>
          
          <?condition method="getRetailPriceModifierReasonCode" comparison="NOT_EQUAL" value="PRICE_OVERRIDE"?> 
          <ReasonCode>#{getRetailPriceModifierReasonCode}</ReasonCode>
          <?_condition?>
          
          <?sectionref name="CRI_Promo_Type"?>
          
          <?condition method="getSerialNumber" comparison="NOT_NULL"?>
          <dtv:SerialNumber>#{getSerialNumber}</dtv:SerialNumber>
          <Coupon>
            <ScanCode>#{getSerialNumber}</ScanCode>
          </Coupon>
          <?_condition?>
          
          <dtv:DiscountReasonCode>#{getDiscountReasonCode}</dtv:DiscountReasonCode>
          <dtv:DiscountReasonCodeComment>#{getNotes}</dtv:DiscountReasonCodeComment>
        </RetailPriceModifier>
        <?_iterator?>
      ]]></xml>
    </section>

    <section name="CRI_Promo_Type">
		<xml><![CDATA[
 			<?condition method="getRetailPriceModifierReasonCode" comparison="EQUAL" value="DEAL"?>
				<?iterator method="getParentLine.getProperties"?>
					<?condition method="getPropertyCode" comparison="EQUAL" value="CRI_PROMO_TYPE"?>
						<PromoType>#{getPropertyValue}</PromoType>
					<?_condition?>
				<?_iterator?>
 			<?_condition?>
		]]></xml>
    </section>

    <section name="sale_return_item">
      <xml><![CDATA[
        <ItemID>#{getItemId.trim}</ItemID>
        <Description>#{getItemDescription}</Description>
				<?sectionref name="CRI_Style_Status"?>
        <UnitCostPrice>#{getItem.getUnitCost}[money]</UnitCostPrice>
        <UnitListPrice>#{getItem.getListPrice}[money]</UnitListPrice>
        <RegularSalesUnitPrice>#{getBaseUnitPrice}[money]</RegularSalesUnitPrice>
        <ActualSalesUnitPrice>#{getUnitPrice}[money]</ActualSalesUnitPrice>
        <ExtendedAmount>#{getExtendedAmount}[money]</ExtendedAmount>
        <Quantity>#{getQuantity}[quantity]</Quantity>
      ]]></xml>
    </section>
    
    <section name="CRI_Style_Status">
		<xml><![CDATA[
			<?iterator method="getProperties"?>
				<?condition method="getPropertyCode" comparison="EQUAL" value="CRI_STYLE_STATUS"?>
					<StyleStatus>#{getPropertyValue}</StyleStatus>
				<?_condition?>
			<?_iterator?>
		]]></xml>
    </section>
    <section name="POST_VOID_BODY">
      <condition class="dtv.pos.docbuilding.conditions.InstanceOfCondition" value="dtv.xst.dao.trn.IPostVoidTransaction" />
      <xml><![CDATA[
        <RetailTransaction TypeCode="Transaction" TransactionStatus="#{getTransactionStatusCode}[transactionStatus]">
          <?call method="getVoidedTransaction"?>
          <?sectionref name="line_items"?>
          <?_call?>
          
          <?condition class="dtv.pos.docbuilding.conditions.InstanceOfCondition" value="dtv.xst.dao.trl.IRetailTransaction"?>
          <Total TotalType="TransactionGrandAmount">#{getTotal}[money]</Total>
          <RoundedTotal>#{getRoundedAmount}[money]</RoundedTotal>
          <?_condition?>
          
          <?sectionref name="customer"?>
          <?sectionref name="post_void_link"?>
          <?sectionref name="post_void_reason"?>
          <?sectionref name="cancel_tran_reasoncode"?>

          <?condition class="dtv.pos.docbuilding.conditions.InstanceOfCondition" value="dtv.xst.dao.trl.IRetailTransaction" inverted="true"?>
          <Total TotalType="TransactionGrandAmount">#{getRoundedAmount}[money]</Total>
          <?_condition?>
        </RetailTransaction>
      ]]></xml>
    </section>
  </sections>
</LogDefinitions>